module oaMonitoring

go 1.14

require (
	github.com/fsnotify/fsnotify v1.4.9 // indirect
	github.com/ghodss/yaml v1.0.0
	github.com/google/go-jsonnet v0.15.0
	github.com/jinzhu/copier v0.0.0-20190924061706-b57f9002281a
	github.com/mitchellh/go-homedir v1.1.0
	github.com/mitchellh/mapstructure v1.3.0 // indirect
	github.com/pelletier/go-toml v1.7.0 // indirect
	github.com/rs/zerolog v1.18.0
	github.com/spf13/afero v1.2.2 // indirect
	github.com/spf13/cast v1.3.1 // indirect
	github.com/spf13/cobra v1.0.0
	github.com/spf13/jwalterweatherman v1.1.0 // indirect
	github.com/spf13/pflag v1.0.5 // indirect
	github.com/spf13/viper v1.7.0
	github.com/stretchr/testify v1.5.1 // indirect
	golang.org/x/sys v0.0.0-20200515095857-1151b9dac4a9 // indirect
	gopkg.in/ini.v1 v1.56.0 // indirect
	gopkg.in/yaml.v2 v2.3.0 // indirect
)
